<?xml version="1.0" encoding="UTF-8" standalone="no"?>
<!DOCTYPE svg PUBLIC "-//W3C//DTD SVG 1.0//EN" "http://www.w3.org/TR/2001/REC-SVG-20010904/DTD/svg10.dtd">
<!-- Created with Inkscape (http://www.inkscape.org/) by Marsupilami -->
<svg
   xmlns:svg="http://www.w3.org/2000/svg"
   xmlns="http://www.w3.org/2000/svg"
   version="1.0"
   width="1024"
   height="222"
   viewBox="-1.99851426 -1.99851426 326.42079852 70.61417052"
   id="svg3336">
  <defs
     id="defs3338" />
  <path
     d="M 86.24638,5.6843419e-14 L 83.84013,5.21875 L 84.62138,6.03125 L 84.62138,14.90625 L 103.74638,14.90625 L 103.74638,6.03125 L 104.46513,5.21875 L 102.05888,5.6843419e-14 L 99.65263,5.21875 L 100.43388,6.03125 L 100.43388,11.03125 L 95.84013,11.03125 L 95.84013,6.03125 L 96.55888,5.21875 L 94.15263,5.6843419e-14 L 91.74638,5.21875 L 92.52763,6.03125 L 92.52763,11.03125 L 87.90263,11.03125 L 87.90263,6.03125 L 88.65263,5.21875 L 86.24638,5.6843419e-14 z M 163.05888,18.4375 C 152.87763,18.4375 150.74638,26.86375 150.74638,30 C 150.74638,33.13625 151.65013,34.41125 153.05888,36.59375 C 154.46763,38.77625 161.93514,43.09125 163.93388,44.5 C 165.73388,45.7675 167.15263,47.49375 167.15263,50.3125 C 167.15263,54.72125 163.41387,57.1875 159.77763,57.1875 C 152.73138,57.09625 151.14512,49.57875 150.87138,48.125 L 149.18388,48.125 C 149.22888,48.80625 149.80014,54.63125 150.02763,56.3125 C 150.89013,56.8575 155.10388,59.1875 160.05888,59.1875 C 169.28638,59.1875 172.96513,52.90626 172.96513,47.90625 C 172.96513,42.90625 171.23262,40.6325 165.27763,36.90625 C 159.32263,33.17875 156.59011,31.4325 156.59013,27.25 C 156.59013,23.06875 159.46137,20.25 163.37138,20.25 C 168.18888,20.25 169.78262,25.03 169.96513,27.53125 L 171.27763,27.53125 L 171.27763,20 C 169.73138,19.455 166.92263,18.43751 163.05888,18.4375 z M 190.87138,18.4375 C 180.68888,18.4375 178.55889,26.86375 178.55888,30 C 178.55888,33.13625 179.46138,34.41125 180.87138,36.59375 C 182.28013,38.77625 189.74764,43.09125 191.74638,44.5 C 193.54638,45.7675 194.96513,47.49375 194.96513,50.3125 C 194.96513,54.72125 191.22512,57.1875 187.59013,57.1875 C 180.54388,57.09625 178.95638,49.57875 178.68388,48.125 L 176.99638,48.125 C 177.04263,48.80625 177.61387,54.63125 177.84013,56.3125 C 178.70388,56.8575 182.91638,59.1875 187.87138,59.1875 C 197.09763,59.1875 200.77763,52.90626 200.77763,47.90625 C 200.77763,42.90625 199.04387,40.6325 193.09013,36.90625 C 187.13513,33.17875 184.43387,31.4325 184.43388,27.25 C 184.43388,23.06875 187.27513,20.25 191.18388,20.25 C 196.00138,20.25 197.59638,25.03 197.77763,27.53125 L 199.09013,27.53125 L 199.09013,20 C 197.54513,19.455 194.73388,18.43751 190.87138,18.4375 z M 74.80888,19.28125 C 74.80888,19.44125 74.80889,20.46375 74.80888,21.03125 L 76.55888,21.03125 C 77.35513,21.03125 78.93388,21.96501 78.93388,24.625 L 78.93388,39.3125 L 78.93388,47.90625 C 78.93388,50.725 80.57013,59.375 92.93388,59.375 C 105.29763,59.375 107.15263,50.08501 107.15263,46.8125 L 107.15263,39.3125 L 107.15263,23.71875 C 107.15263,21.65 108.70138,20.90625 109.49638,20.90625 L 110.43388,20.90625 L 110.43388,19.28125 L 99.74638,19.28125 L 99.74638,20.875 L 101.12138,20.875 C 102.59888,20.875 103.93388,22.35501 103.93388,23.96875 L 103.93388,39.3125 L 103.93388,47.03125 C 103.93388,52.71375 100.24138,56.65625 94.71513,56.65625 C 87.05263,56.65625 85.49639,49.625 85.49638,47.625 L 85.49638,39.3125 L 85.49638,23 C 85.49638,22.0225 86.58139,21.0625 87.55888,21.0625 L 88.99638,21.0625 L 88.99638,19.28125 L 74.80888,19.28125 z M 131.49638,19.3125 C 131.08763,19.3125 114.00513,19.34375 112.27763,19.34375 C 112.27763,19.5025 112.24638,20.55625 112.24638,21.125 L 114.52763,21.125 C 115.48013,21.125 117.09013,22.02875 117.09013,24.6875 L 117.09013,53.5625 C 117.09013,54.79 116.10138,56.46875 114.46513,56.46875 L 112.59013,56.46875 L 112.59013,58.1875 L 128.15263,58.1875 L 128.15263,56.40625 L 126.30888,56.40625 C 125.67263,56.40625 123.68388,55.75126 123.68388,52.75 L 123.68388,40.4375 L 126.99638,40.4375 C 128.54263,42.84625 133.45137,52.24125 138.49638,57.96875 L 149.18388,57.96875 L 149.18388,56.40625 C 148.61513,56.40625 149.28013,56.4375 148.37138,56.4375 C 147.46138,56.4375 146.31762,56.48875 144.59013,54.625 C 142.86263,52.76125 138.66139,48.02875 134.18388,39.1875 C 135.41138,38.48375 136.38513,38.15 137.80888,37.125 C 138.94513,36.3075 141.62139,34.80125 141.62138,29.34375 C 141.62138,23.16125 136.95137,19.3125 131.49638,19.3125 z M 46.49638,19.34375 C 46.49638,19.50375 46.52762,20.49375 46.52763,20.9375 C 49.08513,20.9375 50.84014,21.94375 50.84013,23.625 L 50.84013,53.21875 C 50.84013,56.90125 47.70013,56.625 46.74638,56.625 L 46.74638,58.25 L 73.87138,58.25 C 74.28013,56.88625 75.86888,50.83751 76.27763,49.15625 C 75.73263,48.88375 75.56388,48.84875 74.74638,48.53125 C 72.83763,53.75875 70.38887,55.90625 65.93388,55.90625 L 61.43388,55.90625 C 58.25263,55.90625 57.34013,53.07625 57.34013,51.53125 L 57.34013,24.0625 C 57.34013,20.7675 60.01888,21 61.24638,21 L 61.24638,19.34375 L 46.49638,19.34375 z M 203.12138,19.34375 C 203.12138,19.5025 203.12138,20.55625 203.12138,21.125 C 203.44013,21.125 204.73138,21.125 205.52763,21.125 C 206.32262,21.125 207.90263,22.06 207.90263,24.71875 L 207.90263,38.78125 L 207.90263,52.96875 C 207.90262,55.6275 206.16763,56.5625 205.37138,56.5625 L 203.34013,56.5625 C 203.34012,57.13 203.37138,58.02875 203.37138,58.1875 L 232.05888,58.1875 C 232.41888,56.89126 234.19263,50.1875 234.46513,49.1875 C 233.91888,48.96 233.75763,48.8675 233.12138,48.59375 C 232.53013,49.9575 230.92013,55.875 224.96513,55.875 L 218.37138,55.875 C 216.46263,55.875 214.34013,54.0875 214.34013,52.40625 L 214.34013,38.9375 C 214.77262,38.9375 220.79513,38.9375 222.34013,38.9375 C 225.70387,38.9375 225.77763,42.7475 225.77763,43.65625 L 227.18388,43.65625 C 227.18388,43.42625 227.18388,41.23 227.18388,38.78125 C 227.18638,35.88375 227.18388,32.63875 227.18388,31.875 L 225.52763,31.875 L 225.52763,33.59375 C 225.52763,35.4575 224.38638,36.59375 222.34013,36.59375 L 214.34013,36.59375 L 214.34013,21.59375 L 224.15263,21.59375 C 228.19889,21.59375 228.97513,25.9625 229.24638,27.28125 L 230.77763,27.28125 C 230.73263,26.9175 230.42388,20.775 230.27763,19.34375 L 203.12138,19.34375 z M 235.93388,19.34375 L 235.93388,21.125 L 238.34013,21.125 C 239.43138,21.125 240.84013,22.24625 240.84013,24.40625 L 240.84013,53.46875 C 240.84013,54.65625 239.72887,56.59376 237.68388,56.59375 L 236.15263,56.59375 L 236.15263,58.21875 L 249.27763,58.21875 L 249.27763,56.625 L 247.40263,56.625 C 246.67513,56.625 244.12139,55.835 244.12138,53.3125 L 244.12138,28.25 C 246.32513,31.0225 265.79387,55.32125 268.84013,59.09375 L 270.62138,59.09375 L 270.62138,23.78125 C 270.62138,21.6675 272.71139,20.84375 274.12138,20.84375 L 275.52763,20.84375 L 275.52763,19.34375 L 262.27763,19.34375 L 262.27763,20.96875 L 264.27763,20.96875 C 265.73263,20.96875 267.27764,22.03125 267.27763,23.78125 L 267.27763,45.78125 C 263.95888,41.59875 248.20137,22.07125 245.99638,19.34375 L 235.93388,19.34375 z M 125.59013,21.46875 L 127.49638,21.46875 C 129.86013,21.46875 134.77762,23.26375 134.77763,30.21875 C 134.77763,37.765 128.07013,38.75 125.93388,38.75 L 123.68388,38.75 C 123.68388,36.75 123.68388,26.21625 123.68388,22.75 C 123.68388,21.6025 125.43013,21.46875 125.59013,21.46875 z"
     id="path3172"
     style="fill:#201e21;fill-opacity:1;fill-rule:nonzero;stroke:none" />
  <path
     d="M 0.87750006,65.73964 L 321.54626,65.73964"
     id="path3212"
     style="fill:none;fill-opacity:1;stroke:#00cc33;stroke-width:1.75500011;stroke-linecap:butt;stroke-linejoin:miter;stroke-miterlimit:4;stroke-dasharray:none;stroke-opacity:1" />
</svg>
<!-- version: 20090314, original size: 322.42377 66.617142, border: 3% -->
