<?xml version="1.0" encoding="utf-8"?>
<!-- Generator: Adobe Illustrator 19.2.1, SVG Export Plug-In . SVG Version: 6.00 Build 0)  -->
<svg version="1.1"
	 id="svg2" inkscape:version="0.48.2 r9819" sodipodi:docname="AJAX.svg" xmlns:cc="http://creativecommons.org/ns#" xmlns:dc="http://purl.org/dc/elements/1.1/" xmlns:inkscape="http://www.inkscape.org/namespaces/inkscape" xmlns:rdf="http://www.w3.org/1999/02/22-rdf-syntax-ns#" xmlns:sodipodi="http://sodipodi.sourceforge.net/DTD/sodipodi-0.dtd" xmlns:svg="http://www.w3.org/2000/svg"
	 xmlns="http://www.w3.org/2000/svg" xmlns:xlink="http://www.w3.org/1999/xlink" x="0px" y="0px" viewBox="0 0 629.6 269.3"
	 style="enable-background:new 0 0 629.6 269.3;" xml:space="preserve">
<style type="text/css">
	.st0{fill:#FFFFFF;}
	.st1{fill:#ABB5BC;}
	.st2{fill:#003E81;}
</style>
<sodipodi:namedview  bordercolor="#666666" borderopacity="1" fit-margin-bottom="0" fit-margin-left="0" fit-margin-right="0" fit-margin-top="0" gridtolerance="10" guidetolerance="10" id="namedview37" inkscape:current-layer="Ebene_1" inkscape:cx="658.19049" inkscape:cy="129.36162" inkscape:pageopacity="0" inkscape:pageshadow="2" inkscape:window-height="1004" inkscape:window-maximized="1" inkscape:window-width="1280" inkscape:window-x="-8" inkscape:window-y="-8" inkscape:zoom="0.47495358" objecttolerance="10" pagecolor="#ffffff" showgrid="false">
	</sodipodi:namedview>
<g id="Ebene_1" transform="translate(-35.573076,-15)">
	<polyline id="polyline5" class="st0" points="303.6,20.6 317.9,68.3 270.3,53.6 270.3,141.8 318.3,127.1 304.2,174.6 391,174.6 
		377.3,127.7 424.2,141 424.2,53.9 377.7,67.3 391.7,20.6 303.6,20.6 	"/>
	<path id="path7" inkscape:connector-curvature="0" class="st1" d="M424.2,128.2c-13.9-5.3-37.5-13.5-62.8-16.5
		c3,25.3,11.2,48.8,16.5,62.8h-61.4c5.3-13.9,13.5-37.5,16.5-62.8c-25.3,3-48.8,11.2-62.8,16.5V66.8c13.9,5.3,37.5,13.5,62.8,16.5
		c-3-25.3-11.2-48.8-16.5-62.8h61.4c-5.3,13.9-13.5,37.5-16.5,62.8c25.3-3,48.8-11.2,62.8-16.5L424.2,128.2"/>
	<path id="path9" inkscape:connector-curvature="0" class="st2" d="M311.6,61.9c-3.8-16-9.5-30.7-13.2-41.4h9.5
		c6.3,16.1,13.1,38.9,15.4,53.1c-14.2-2.3-37-9.1-53.1-15.4v-9.5C280.9,52.4,295.6,58.1,311.6,61.9"/>
	<path id="path11" inkscape:connector-curvature="0" class="st2" d="M311.6,133.1c-16,3.8-30.7,9.5-41.4,13.2v-9.5
		c16.1-6.3,38.9-13.2,53.1-15.4c-2.3,14.2-9.1,37-15.4,53.1h-9.5C302.1,163.8,307.8,149.1,311.6,133.1"/>
	<path id="path13" inkscape:connector-curvature="0" class="st2" d="M382.8,133.1c3.8,16,9.5,30.7,13.2,41.4h-9.5
		c-6.3-16.1-13.2-38.9-15.4-53.1c14.2,2.3,37.1,9.1,53.1,15.4v9.5C413.5,142.6,398.8,136.9,382.8,133.1"/>
	<path id="path15" inkscape:connector-curvature="0" class="st2" d="M382.8,61.9c16-3.8,30.7-9.5,41.4-13.2v9.5
		c-16.1,6.3-38.9,13.2-53.1,15.4c2.3-14.2,9.1-37,15.4-53.1h9.5C392.3,31.2,386.6,45.9,382.8,61.9"/>
	<path id="path17" inkscape:connector-curvature="0" class="st2" d="M515,247.8c0.4-5.9,3.4-10.7,9.8-10.7c7,0,9.8,4.8,9.8,10.7H515
		 M550.4,257.8v-3.2c0-15.2-6.9-28.5-25.7-28.5c-15.9,0-27.3,9.8-27.3,26.6c0,16.8,12.8,26.7,29.6,26.7c6.6,0,13-1,18.7-3.2v-12.4
		c-5.3,2.8-10.8,3.9-15.6,3.9c-8.6,0-14-2.7-15-9.8L550.4,257.8L550.4,257.8z"/>
	<path id="path19" inkscape:connector-curvature="0" class="st2" d="M324,247.8c0.4-5.9,3.4-10.7,9.8-10.7c7,0,9.8,4.8,9.8,10.7H324
		 M359.5,257.8v-3.2c0-15.2-6.9-28.5-25.7-28.5c-15.9,0-27.3,9.8-27.3,26.6c0,16.8,12.8,26.7,29.6,26.7c6.6,0,13-1,18.7-3.2v-12.4
		c-5.3,2.8-10.8,3.9-15.6,3.9c-8.6,0-14-2.7-15-9.8L359.5,257.8L359.5,257.8z"/>
	<path id="path21" inkscape:connector-curvature="0" class="st2" d="M63.1,220.5h8.8c4.3,0,9.7,1.1,9.7,7.4c0,6.3-5.5,7.4-9.7,7.4
		h-8.8V220.5 M63.1,247.3h10.1c5.4,0,10.7,1.8,10.7,8.5c0,6.7-5.3,8.5-10.7,8.5l-10.1,0V247.3z M44.8,277.3h30.3
		c12.5,0,27.4-3.6,27.4-20.3c0-8.5-5-13.8-14.4-15.7c7.3-2.7,12-7.8,12-16.1c0-12-9.7-17.7-22.7-17.7H44.8V277.3z"/>
	<path id="path23" inkscape:connector-curvature="0" class="st2" d="M258.5,252.1c0-6.7,3.8-12.6,10.7-12.6
		c6.5,0,10.8,5.6,10.8,13.3c0,7.4-4.9,13-10.8,13C262.5,265.8,258.5,260.2,258.5,252.1 M296.9,206.2h-17.1v27.5
		c-2.3-3.7-7-7.7-16.1-7.7c-16,0-23.5,13.2-23.5,25.7c0,15.1,8.1,27.6,23.3,27.6c8.1,0,15.4-4.6,17.7-10.3v8.3h15.7V206.2
		L296.9,206.2z"/>
	<path id="path25" inkscape:connector-curvature="0" class="st2" d="M559.6,277.3h17.1v-20.9c0-10.6,3.6-15.5,10.6-15.5
		c4.7,0,7.9,3.1,7.9,12.4v23.9h17.1v-30.8c0-10.3-5.4-19.7-18.9-19.7c-7.4,0-12.8,3.3-16.5,8.4h-0.2v-29h-17.1V277.3"/>
	<path id="path27" inkscape:connector-curvature="0" class="st2" d="M658.4,227c-0.8-0.1-2.2-0.2-3.4-0.2c-7.4,0-11.7,4-14.6,10.2
		h-0.2v-9.1h-15.6v49.4h17.1v-20.9c0-9.7,4.4-15.4,12.3-15.4c1.3,0,2.9,0.2,3.5,0.4L658.4,227"/>
	<polyline id="polyline29" class="st2" points="461.7,277.3 479.7,277.3 494.8,227.9 478.3,227.9 471.4,259.4 463.8,227.9 
		445.2,227.9 437.6,259.4 430.3,227.9 412.5,227.9 427.7,277.3 445.6,277.3 454.1,245.3 461.7,277.3 	"/>
	<path id="path31" inkscape:connector-curvature="0" class="st2" d="M367.3,276.8c5.2,1.7,10.6,2.4,18.5,2.4
		c11.5,0,23.8-3.4,23.8-17c0-19.4-26.2-13.1-26.2-21c0-2.8,4.3-3.5,8.1-3.5c4.4,0,10,1.2,13.7,3.4l1.4-12.2
		c-5.7-2.2-11.8-2.9-17.9-2.9c-10.2,0-21.7,4.8-21.7,16.5c0,18.4,25,12.3,25,20.9c0,3.5-3.5,4.1-7.1,4.1c-6.4,0-12.4-1.8-16.5-3.5
		L367.3,276.8"/>
	<path id="path33" inkscape:connector-curvature="0" class="st2" d="M178,277.3H195v-20.9c0-10.6,3.6-15.5,10.6-15.5
		c4.7,0,7.9,3.1,7.9,12.4v23.9h17.1v-30.8c0-10.3-5.4-19.7-18.9-19.7c-7.8,0-14.6,3.1-18,10.2h-0.2v-9.1H178L178,277.3"/>
	<path id="path35" inkscape:connector-curvature="0" class="st2" d="M164.9,227.9h-17.1v20.9c0,10.6-3.6,15.5-10.6,15.5
		c-4.7,0-7.9-3.1-7.9-12.4v-23.9h-17.1v30.8c0,10.2,5.4,19.7,18.9,19.7c7.8,0,14.6-3.1,18-10.2h0.2v9.1h15.6L164.9,227.9"/>
</g>
</svg>
